Analysis
…
null_dist <- mask_old %>%
  specify(proportion ~ prof_mask) %>%
  hypothesize(null = "independence") %>%
  generate(reps = 1000, type = "permute") %>%
  calculate(stat = "diff in means", order = c("NO", "YES"))
null_dist

Response: proportion (numeric)
Explanatory: prof_mask (factor)
Null Hypothesis: independence
# A tibble: 1,000 × 2
   replicate    stat
       <int>   <dbl>
 1         1  0.0370
 2         2  0.0926
 3         3  0.139 
 4         4  0.0941
 5         5  0.0490
 6         6  0.163 
 7         7 -0.0127
 8         8  0.0242
 9         9  0.112 
10        10  0.0826
# … with 990 more rows
…
